<svg xmlns="http://www.w3.org/2000/svg" xmlns:xlink="http://www.w3.org/1999/xlink" width="35.673" height="31.441" viewBox="0 0 35.673 31.441">
  <defs>
    <clipPath id="clip-path">
      <rect id="Rectangle_21" data-name="Rectangle 21" width="35.673" height="31.441" fill="#fff"/>
    </clipPath>
  </defs>
  <g id="betting_cart_opener" clip-path="url(#clip-path)">
    <path id="Path_25" data-name="Path 25" d="M30.066,4.491h4.1a.753.753,0,0,1,.722.966L31.141,17.651A1.506,1.506,0,0,1,29.7,18.714H12.026" fill="none" stroke="#fff" stroke-miterlimit="10" stroke-width="2"/>
    <path id="Path_26" data-name="Path 26" d="M30.817,23.955H14.65a1.512,1.512,0,0,1-1.443-1.071L7.088,2.568A1.5,1.5,0,0,0,5.645,1.5H0" fill="none" stroke="#fff" stroke-miterlimit="10" stroke-width="2"/>
    <path id="Path_27" data-name="Path 27" d="M13.522,30.692a2.253,2.253,0,1,0-2.263-2.253A2.258,2.258,0,0,0,13.522,30.692Z" fill="none" stroke="#fff" stroke-miterlimit="10" stroke-width="2"/>
    <path id="Path_28" data-name="Path 28" d="M28.57,30.692a2.253,2.253,0,1,0-2.262-2.253A2.258,2.258,0,0,0,28.57,30.692Z" fill="none" stroke="#fff" stroke-miterlimit="10" stroke-width="2"/>
    <path id="Path_29" data-name="Path 29" d="M21.046,15.721A7.486,7.486,0,1,0,13.53,8.235,7.5,7.5,0,0,0,21.046,15.721Z" fill="none" stroke="#fff" stroke-miterlimit="10" stroke-width="2"/>
    <path id="Path_30" data-name="Path 30" d="M21.046,4.491v7.486" fill="none" stroke="#fff" stroke-miterlimit="10" stroke-width="2"/>
    <path id="Path_31" data-name="Path 31" d="M24.8,8.234H17.288" fill="none" stroke="#fff" stroke-miterlimit="10" stroke-width="2"/>
    <path id="Path_32" data-name="Path 32" d="M12.026,4.491H7.516" fill="none" stroke="#fff" stroke-miterlimit="10" stroke-width="2"/>
  </g>
</svg>
